<svg class="border" viewBox="0 0 1440 3" fill="none" xmlns="http://www.w3.org/2000/svg">
<line y1="2" x2="160" y2="2" stroke="#0BB2CD" stroke-width="4"/>
<line x1="160" y1="2" x2="320" y2="2" stroke="#8A74B1" stroke-width="3"/>
<line x1="320" y1="2" x2="480" y2="2" stroke="#E7578E" stroke-width="3"/>
<line x1="480" y1="2" x2="640" y2="2" stroke="#F5A128" stroke-width="3"/>
<line x1="640" y1="2" x2="800" y2="2" stroke="#0BB2CD" stroke-width="3"/>
<line x1="800" y1="2" x2="960" y2="2" stroke="#8A74B1" stroke-width="3"/>
<line x1="960" y1="2" x2="1120" y2="2" stroke="#E7578E" stroke-width="3"/>
<line x1="1120" y1="2" x2="1280" y2="2" stroke="#F5A128" stroke-width="3"/>
<line x1="1280" y1="2" x2="1440" y2="2" stroke="#0BB2CD" stroke-width="3"/>
</svg>
